Division,WeightClassKg,Place,Name,Team,BodyweightKg,Best3SquatKg,Best3BenchKg,Best3DeadliftKg,TotalKg,Equipment,Event,Sex
Boys,51.71,1,Isaac Santillan,Clifton,51.35,136.08,83.91,151.95,371.95,Single-ply,SBD,M
Boys,51.71,2,Sebastian Flores,Blanco,51.26,136.08,83.91,124.74,344.73,Single-ply,SBD,M
Boys,51.71,3,Joe-Angel Carpenter,Troy,51.07,122.47,70.31,140.61,333.39,Single-ply,SBD,M
Boys,51.71,4,Angel Contreras,Comfort,51.71,129.27,72.57,131.54,333.39,Single-ply,SBD,M
Boys,51.71,5,Devin Bandow,Lago Vista,51.53,124.74,68.04,136.08,328.85,Single-ply,SBD,M
Boys,51.71,6,Brian Elliston,Brady,51.26,113.4,54.43,131.54,299.37,Single-ply,SBD,M
Boys,51.71,7,Zachary Callaway,Whitney,51.71,111.13,63.5,120.2,294.84,Single-ply,SBD,M
Boys,51.71,8,Jared Rocha,Waco Reicher Catholic,51.26,102.06,61.23,127.01,290.3,Single-ply,SBD,M
Boys,51.71,9,Stephen Mathison,Whitney,50.08,108.86,65.77,106.59,281.23,Single-ply,SBD,M
Boys,51.71,10,Chandler McVan,Waco Reicher Catholic,50.71,92.99,54.43,122.47,269.89,Single-ply,SBD,M
Boys,51.71,11,Kade Pace,Lago Vista,49.99,99.79,49.9,113.4,263.08,Single-ply,SBD,M
Boys,51.71,DQ,Clayton Whitmire,Little River Academy,49.9,,,,,Single-ply,SBD,M
Boys,55.79,1,Fausto Rodriguez,West,55.61,170.1,99.79,181.44,451.32,Single-ply,SBD,M
Boys,55.79,2,Trevor Koestens,Troy,55.16,170.1,102.06,167.83,439.98,Single-ply,SBD,M
Boys,55.79,3,Hunter Mullins,Jarrell,55.79,158.76,97.52,156.49,412.77,Single-ply,SBD,M
Boys,55.79,4,Cameron Carpenter,McGregor,55.79,172.37,74.84,158.76,405.97,Single-ply,SBD,M
Boys,55.79,5,Gabriel Spikes,Lago Vista,55.43,142.88,102.06,151.95,396.89,Single-ply,SBD,M
Boys,55.79,6,Kip Ross,Lago Vista,54.88,136.08,81.65,158.76,376.48,Single-ply,SBD,M
Boys,55.79,7,Bryan McNeill,Rogers,55.52,142.88,77.11,142.88,362.87,Single-ply,SBD,M
Boys,55.79,8,Dylan Diestel,Rockdale,54.88,131.54,74.84,149.69,356.07,Single-ply,SBD,M
Boys,55.79,9,Cameron Naumann,Florence,55.79,138.35,63.5,149.69,351.53,Single-ply,SBD,M
Boys,55.79,10,Avery Rodriguez #2,Cameron Yoe,54.88,127.01,72.57,142.88,342.46,Single-ply,SBD,M
Boys,55.79,11,Robbie Brewer,Clifton,54.25,149.69,83.91,90.72,324.32,Single-ply,SBD,M
Boys,,NS,Daniel Pina,Comanche,,,,,,Single-ply,SBD,M
Boys,59.87,1,Bobby Hanson,Axtell,59.87,165.56,108.86,176.9,451.32,Single-ply,SBD,M
Boys,59.87,2,Davin Carboni,Hillsboro,58.79,165.56,102.06,165.56,433.18,Single-ply,SBD,M
Boys,59.87,3,Alex Reynoso,West,58.42,151.95,92.99,179.17,424.11,Single-ply,SBD,M
Boys,59.87,4,Emiliano Mar,Clifton,59.06,156.49,92.99,167.83,417.3,Single-ply,SBD,M
Boys,59.87,5,Justin O'Neal,Clifton,59.06,161.03,86.18,165.56,412.77,Single-ply,SBD,M
Boys,59.87,6,Hayden Brown,Rio Vista,59.69,158.76,95.25,147.42,401.43,Single-ply,SBD,M
Boys,59.87,7,Daniel Kelso,Lago Vista,59.06,154.22,81.65,158.76,394.63,Single-ply,SBD,M
Boys,59.87,8,Greg Norman,Grandview,59.87,156.49,79.38,154.22,390.09,Single-ply,SBD,M
Boys,59.87,9,Osvaldo Antunez,Hillsboro,58.79,142.88,97.52,147.42,387.82,Single-ply,SBD,M
Boys,59.87,10,Cesar Galvan,Dublin,57.15,133.81,86.18,156.49,376.48,Single-ply,SBD,M
Boys,59.87,11,TJ Renfro,Thrall,59.87,127.01,81.65,156.49,365.14,Single-ply,SBD,M
Boys,59.87,DQ,Rodrigo Hernandez,Hillsboro,58.79,,,,,Single-ply,SBD,M
Boys,,NS,Jose Hinojosa,Moody,,,,,,Single-ply,SBD,M
Boys,67.13,1,Cesar Herrera,Glen Rose,65.05,233.6,127.01,199.58,560.19,Single-ply,SBD,M
Boys,67.13,2,Eddie Torres,Blanco,64.95,195.04,111.13,197.31,503.49,Single-ply,SBD,M
Boys,67.13,3,Steven Flores,Blanco,65.32,185.97,104.33,192.78,483.08,Single-ply,SBD,M
Boys,67.13,4,Sergio Gonzalez,Troy,66.77,181.44,92.99,192.78,467.2,Single-ply,SBD,M
Boys,67.13,5,Jacob Delafuenta,Brady,64.95,172.37,102.06,190.51,464.93,Single-ply,SBD,M
Boys,67.13,6,Ryan Martinez,Tolar,66.04,154.22,127.01,176.9,458.13,Single-ply,SBD,M
Boys,67.13,7,Josh Turner,McGregor,67.04,170.1,97.52,176.9,444.52,Single-ply,SBD,M
Boys,67.13,8,Samuel Shorts,Whitney,66.59,183.7,92.99,165.56,442.25,Single-ply,SBD,M
Boys,67.13,9,Blake Herrera,Bruceville-Eddy,63.78,158.76,106.59,158.76,424.11,Single-ply,SBD,M
Boys,67.13,10,Oscar Manuel,Hillsboro,66.77,154.22,97.52,163.29,415.04,Single-ply,SBD,M
Boys,67.13,DQ,Kasey Sisson,Bangs,67.04,172.37,99.79,,,Single-ply,SBD,M
Boys,67.13,DQ,Casey Stevenson,Rio Vista,62.87,172.37,,,,Single-ply,SBD,M
Boys,67.13,DQ,Connor Reighly,Lago Vista,65.86,174.63,88.45,,,Single-ply,SBD,M
Boys,74.84,1,Devyn Hebbe,Axtell,72.3,258.55,113.4,240.4,612.35,Single-ply,SBD,M
Boys,74.84,2,Adolfo Rodriguez,West,74.57,235.87,149.69,185.97,571.53,Single-ply,SBD,M
Boys,74.84,3,Ryan Hill #1,Lago Vista,72.67,219.99,136.08,192.78,548.85,Single-ply,SBD,M
Boys,74.84,4,Kaleb Hairston,Thorndale,73.12,215.46,131.54,199.58,546.58,Single-ply,SBD,M
Boys,74.84,5,Jacob Riley,Dublin,72.85,192.78,104.33,238.14,535.24,Single-ply,SBD,M
Boys,74.84,6,Grant Mitchell,Early,74.75,181.44,117.93,201.85,501.22,Single-ply,SBD,M
Boys,74.84,7,Moe Bryson,Lago Vista,73.21,183.7,90.72,206.38,480.81,Single-ply,SBD,M
Boys,74.84,8,Martin Najera,Hamilton,72.76,147.42,102.06,181.44,430.91,Single-ply,SBD,M
Boys,74.84,DQ,Dylan Hines,Lago Vista,73.75,,,,,Single-ply,SBD,M
Boys,74.84,DQ,Justin Requenes,Blanco,72.12,158.76,,,,Single-ply,SBD,M
Boys,,NS,Hunter Hernandez #2,Jarrell,,,,,,Single-ply,SBD,M
Boys,,NS,Tydrick Williams,Cameron Yoe,,,,,,Single-ply,SBD,M
Boys,82.1,1,Nacho Rios,Comanche,79.74,222.26,151.95,215.46,589.67,Single-ply,SBD,M
Boys,82.1,2,Hunter Douzat,Little River Academy,76.66,233.6,136.08,215.46,585.13,Single-ply,SBD,M
Boys,82.1,3,Drew Roberts,Bosqueville,81.1,217.72,154.22,204.12,576.06,Single-ply,SBD,M
Boys,82.1,4,Cody Carrow,Lago Vista,81.01,210.92,149.69,199.58,560.19,Single-ply,SBD,M
Boys,82.1,5,Michael Rodriguez #7,Axtell,79.38,219.99,108.86,222.26,551.11,Single-ply,SBD,M
Boys,82.1,6,Malcolm Johnson,Rosebud-Lott,78.65,199.58,142.88,197.31,539.77,Single-ply,SBD,M
Boys,82.1,7,Imanol Martinez,Brady,80.92,222.26,113.4,199.58,535.24,Single-ply,SBD,M
Boys,82.1,8,Dereck Morris,Hempstead,79.38,204.12,104.33,208.65,517.1,Single-ply,SBD,M
Boys,82.1,9,Vincent Wilson,Rogers,80.56,195.04,142.88,174.63,512.56,Single-ply,SBD,M
Boys,82.1,DQ,Bradley Bass,Waco Reicher Catholic,77.47,199.58,,,,Single-ply,SBD,M
Boys,82.1,DQ,Eduardo Loma,Jarrell,80.92,249.48,,,,Single-ply,SBD,M
Boys,82.1,DQ,Jason Faulkner,Comfort,77.2,,,,,Single-ply,SBD,M
Boys,82.1,DQ,Fernando Fernandez,Chilton,81.47,185.97,,,,Single-ply,SBD,M
Boys,89.81,1,Payton Nance,Comanche,83.46,249.48,127.01,249.48,625.96,Single-ply,SBD,M
Boys,89.81,2,Michael Autenrieth,Waco Reicher Catholic,88.27,244.94,145.15,235.87,625.96,Single-ply,SBD,M
Boys,89.81,3,Alex Parsons,McGregor,89.09,256.28,131.54,235.87,623.69,Single-ply,SBD,M
Boys,89.81,4,Mason Oliver,Clifton,86.91,231.33,111.13,251.74,594.21,Single-ply,SBD,M
Boys,89.81,5,Eric Rosson,Grandview,87.63,226.8,124.74,197.31,548.85,Single-ply,SBD,M
Boys,89.81,6,Cortney Young #2,Rogers,84.19,215.46,115.67,192.78,523.9,Single-ply,SBD,M
Boys,89.81,7,Timothy Thomas,Whitney,84.55,204.12,111.13,201.85,517.1,Single-ply,SBD,M
Boys,89.81,8,James Taylor #5,Wallis Brazos,88.99,199.58,127.01,181.44,508.02,Single-ply,SBD,M
Boys,89.81,9,Emiliano Jimenez,Comanche,83.1,181.44,120.2,195.04,496.68,Single-ply,SBD,M
Boys,89.81,DQ,Vaughn Morris,Hempstead,87.82,240.4,,,,Single-ply,SBD,M
Boys,89.81,DQ,Zack Menkin,Lago Vista,84.19,,,,,Single-ply,SBD,M
Boys,89.81,DQ,Blake Carr,Lago Vista,88.45,,,,,Single-ply,SBD,M
Boys,99.79,1,Jason Marroquin,Axtell,98.25,254.01,140.61,265.35,659.98,Single-ply,SBD,M
Boys,99.79,2,Eric Marton,Axtell,97.43,272.16,136.08,244.94,653.17,Single-ply,SBD,M
Boys,99.79,3,Braxton Barrios,Glen Rose,94.26,254.01,147.42,226.8,628.23,Single-ply,SBD,M
Boys,99.79,4,Bobby Graham,Franklin,96.43,235.87,161.03,226.8,623.69,Single-ply,SBD,M
Boys,99.79,5,Javier Hernandez,Brady,92.8,224.53,138.35,240.4,603.28,Single-ply,SBD,M
Boys,99.79,6,Daniel Fraire,West,96.07,276.69,147.42,176.9,601.01,Single-ply,SBD,M
Boys,99.79,7,Weston Bauer,Brady,95.44,215.46,149.69,226.8,591.94,Single-ply,SBD,M
Boys,99.79,8,Alex Falcon,Troy,95.8,235.87,140.61,210.92,587.4,Single-ply,SBD,M
Boys,99.79,9,Franco Landeros,Crawford,96.89,226.8,136.08,206.38,569.26,Single-ply,SBD,M
Boys,99.79,DQ,Cody Wilson #6,Hamilton,93.26,238.14,120.2,,,Single-ply,SBD,M
Boys,99.79,DQ,Ismael Rocha,Holland,99.43,,,,,Single-ply,SBD,M
Boys,99.79,DQ,Simeon Davis,Florence,99.79,229.06,115.67,,,Single-ply,SBD,M
Boys,109.77,1,Cristian Contreras,Hearne,108.59,290.3,192.78,260.82,743.89,Single-ply,SBD,M
Boys,109.77,2,Jacob Aguirre,Rockdale,106.78,244.94,156.49,240.4,641.83,Single-ply,SBD,M
Boys,109.77,3,Zach Solano,Rogers,104.6,258.55,154.22,215.46,628.23,Single-ply,SBD,M
Boys,109.77,4,Michael Els,Lago Vista,103.87,247.21,165.56,210.92,623.69,Single-ply,SBD,M
Boys,109.77,5,Matt Willis,Glen Rose,106.59,240.4,140.61,238.14,619.15,Single-ply,SBD,M
Boys,109.77,6,Kris West,Bruceville-Eddy,107.5,215.46,147.42,208.65,571.53,Single-ply,SBD,M
Boys,109.77,7,Chandler Strmiska,Little River Academy,100.61,204.12,151.95,204.12,560.19,Single-ply,SBD,M
Boys,109.77,8,Will Worrell,Crawford,100.7,226.8,117.93,215.46,560.19,Single-ply,SBD,M
Boys,109.77,9,Elijah Cummings,Whitney,108.23,219.99,124.74,201.85,546.58,Single-ply,SBD,M
Boys,109.77,10,Adrian Bravo,Jarrell,106.87,190.51,145.15,188.24,523.9,Single-ply,SBD,M
Boys,109.77,11,Jaxon Tucker,Brady,104.33,204.12,113.4,195.04,512.56,Single-ply,SBD,M
Boys,109.77,12,Colten Orsak,Snook,105.14,204.12,104.33,204.12,512.56,Single-ply,SBD,M
Boys,,NS,Ishmael Ramirez,Hillsboro,,,,,,Single-ply,SBD,M
Boys,124.74,1,Blake Johnson,Franklin,123.29,317.51,163.29,254.01,734.82,Single-ply,SBD,M
Boys,124.74,2,Pedro Bernal,Comanche,119.2,306.17,158.76,249.48,714.41,Single-ply,SBD,M
Boys,124.74,3,Ethan Price,Dublin,112.4,249.48,167.83,192.78,610.08,Single-ply,SBD,M
Boys,124.74,4,Brayan Villa,Grandview,114.12,224.53,167.83,215.46,607.81,Single-ply,SBD,M
Boys,124.74,5,Adrian Lewis,Cameron Yoe,123.47,235.87,154.22,181.44,571.53,Single-ply,SBD,M
Boys,124.74,6,Thomas Harville,Jarrell,112.85,244.94,129.27,192.78,566.99,Single-ply,SBD,M
Boys,124.74,7,Kellan Anderson,Rogers,115.58,229.06,117.93,206.38,553.38,Single-ply,SBD,M
Boys,124.74,8,Joe Fallwell,Whitney,122.29,204.12,138.35,210.92,553.38,Single-ply,SBD,M
Boys,124.74,9,Ethan Mendoza,Rogers,124.38,226.8,127.01,181.44,535.24,Single-ply,SBD,M
Boys,124.74,10,Quentin White,Rockdale,113.31,226.8,120.2,183.7,530.7,Single-ply,SBD,M
Boys,124.74,DQ,Brandon Webb,Lago Vista,114.58,233.6,113.4,,,Single-ply,SBD,M
Boys,124.74,DQ,Isaias Hernandez,Hillsboro,121.47,285.76,151.95,,,Single-ply,SBD,M
Boys,124.74+,1,Drew Thigpen,Little River Academy,139.89,283.5,156.49,204.12,644.1,Single-ply,SBD,M
Boys,124.74+,2,Joel Sanchez #1,Luling,171,272.16,142.88,215.46,630.49,Single-ply,SBD,M
Boys,124.74+,3,Kelton Parson,Bangs,147.96,256.28,158.76,204.12,619.15,Single-ply,SBD,M
Boys,124.74+,4,Justin Huckabee,Glen Rose,130.36,231.33,147.42,226.8,605.55,Single-ply,SBD,M
Boys,124.74+,5,Connor Murphy,Early,143.79,233.6,136.08,215.46,585.13,Single-ply,SBD,M
Boys,124.74+,6,Crispin Salinas,Chilton,124.83,244.94,122.47,201.85,569.26,Single-ply,SBD,M
Boys,124.74+,7,James Fry,Rogers,127.55,226.8,129.27,195.04,551.11,Single-ply,SBD,M
Boys,124.74+,8,Seth Kohlscheen,Crawford,125.74,240.4,108.86,197.31,546.58,Single-ply,SBD,M
Boys,124.74+,9,Diesel Ceresini,Early,125.92,204.12,108.86,199.58,512.56,Single-ply,SBD,M
Boys,124.74+,DQ,Tyler Flowers,Bosqueville,132.9,265.35,,,,Single-ply,SBD,M
Boys,124.74+,DQ,Jonathyn Murry,Luling,139.53,231.33,,,,Single-ply,SBD,M
Boys,124.74+,DQ,De'vonze Franklin,Snook,142.88,249.48,147.42,,,Single-ply,SBD,M
