Name,WeightClassKg,Best3SquatKg,Best3BenchKg,Best3DeadliftKg,TotalKg,Event,Equipment,Sex,Division,Place,AgeRange
L. Mella,48,120,50,127.5,297.5,SBD,Single-ply,F,Open,1,
Diane Fisanich,48,72.5,37.5,95,205,SBD,Single-ply,F,Open,2,
Silber Gotshalk,52,105,45,147.5,297.5,SBD,Single-ply,F,Open,1,
Ellen Hollingsworth,56,122.5,67.5,137.5,327.5,SBD,Single-ply,F,Open,1,
Almedia Parham,56,100,57.5,137.5,295,SBD,Single-ply,F,Open,2,
Pam Landy,56,95,50,117.5,262.5,SBD,Single-ply,F,Open,3,
Donna Tracey,60,132.5,50,150,332.5,SBD,Single-ply,F,Open,1,
Beth Bonner,75,105,60,152.5,317.5,SBD,Single-ply,F,Open,1,45-49
M. Russo,82.5,97.5,47.5,97.5,242.5,SBD,Single-ply,F,Open,1,
Sharon Mitnik,90,195,85,165,445,SBD,Single-ply,F,Open,1,
Doug McDonald,52,117.5,120,117.5,355,SBD,Single-ply,M,Open,1,
Dan DeFiore,52,65,42.5,97.5,205,SBD,Single-ply,M,Open,2,
Fred Glass,56,137.5,67.5,185,390,SBD,Single-ply,M,Open,1,
E. Villanueva,56,125,102.5,145,372.5,SBD,Single-ply,M,Open,2,
L. Road,56,60,65,115,240,SBD,Single-ply,M,Open,3,
Iain Burgess,60,177.5,125,212.5,515,SBD,Single-ply,M,Open,1,40-49
Greg Yamamoto,60,182.5,127.5,205,515,SBD,Single-ply,M,Open,2,
Ben Harder,60,157.5,97.5,200,455,SBD,Single-ply,M,Open,3,
Paul Sacco,67.5,237.5,142.5,237.5,617.5,SBD,Single-ply,M,Open,1,
E. Fioravanti,67.5,212.5,107.5,215,535,SBD,Single-ply,M,Open,2,13-19
E. Jewell,67.5,217.5,100,200,517.5,SBD,Single-ply,M,Open,3,
Robert Sam,67.5,160,130,195,485,SBD,Single-ply,M,Open,4,
P. Candilis,67.5,77.5,100,135,312.5,SBD,Single-ply,M,Open,5,
M. Shklar,67.5,77.5,75,125,277.5,SBD,Single-ply,M,Open,6,
Rober Walsh,75,260,152.5,260,672.5,SBD,Single-ply,M,Open,1,
Charles Sacco,75,210,142.5,237.5,590,SBD,Single-ply,M,Open,2,
Kenneth Samuel,75,200,140,250,590,SBD,Single-ply,M,Open,3,
Paul Champion,75,200,102.5,242.5,545,SBD,Single-ply,M,Open,4,
Rod Borden,75,192.5,122.5,215,530,SBD,Single-ply,M,Open,5,
Tom Eiseman,75,,,,,SBD,Single-ply,M,Open,DQ,
R. Koller,75,,,,,SBD,Single-ply,M,Open,DQ,
Scott Shiplett,82.5,287.5,172.5,272.5,732.5,SBD,Single-ply,M,Open,1,
Don Allen,82.5,247.5,150,255,652.5,SBD,Single-ply,M,Open,2,
Steve Gerenscer,82.5,222.5,160,242.5,625,SBD,Single-ply,M,Open,3,
Tony Siravo,82.5,105,,,,SBD,Single-ply,M,Open,DQ,
Doug Haines,82.5,,,,,SBD,Single-ply,M,Open,DQ,
Tom Conway,90,232.5,162.5,265,660,SBD,Single-ply,M,Open,1,
Tony Lusardi,90,210,162.5,242.5,615,SBD,Single-ply,M,Open,2,
Stephen Cloak,90,212.5,132.5,260,605,SBD,Single-ply,M,Open,3,
F. Pulece,90,,,,,SBD,Single-ply,M,Open,DQ,
Pete Buzy,100,337.5,197.5,332.5,867.5,SBD,Single-ply,M,Open,1,
Mike Metchikian,100,365,197.5,287.5,850,SBD,Single-ply,M,Open,2,
John Schaeffer,100,295,205,280,780,SBD,Single-ply,M,Open,3,
Bruce Ercan,100,280,157.5,277.5,715,SBD,Single-ply,M,Open,4,
David Koering,100,265,180,267.5,712.5,SBD,Single-ply,M,Open,5,
Chas Horvath,100,250,172.5,275,697.5,SBD,Single-ply,M,Open,6,
Jim Szpiech,100,245,172.5,272.5,690,SBD,Single-ply,M,Open,7,
Lorne Keller,100,242.5,170,272.5,685,SBD,Single-ply,M,Open,8,
Ken Toth,100,260,155,260,675,SBD,Single-ply,M,Open,9,
B. Babashan,100,230,147.5,245,622.5,SBD,Single-ply,M,Open,10,
Rich Labbe,100,295,227.5,,,SBD,Single-ply,M,Open,DQ,
C. Trentacosti,100,230,182.5,,,SBD,Single-ply,M,Open,DQ,
Ralph Seagraves,110,292.5,180,287.5,760,SBD,Single-ply,M,Open,2,
Scott Edmiston,110,282.5,207.5,272.5,762.5,SBD,Single-ply,M,Open,1,
Rick Addy,110,277.5,172.5,277.5,727.5,SBD,Single-ply,M,Open,3,
Chet Martin,110,245,170,255,670,SBD,Single-ply,M,Open,4,
K. Ruffler,110,227.5,160,217.5,605,SBD,Single-ply,M,Open,5,
Craig Carvin,110,275,,,,SBD,Single-ply,M,Open,DQ,
M. Sheridan,110,,,,,SBD,Single-ply,M,Open,DQ,
Dan Pollio,110,,,,,SBD,Single-ply,M,Open,DQ,
John Gentile,125,340,215,335,890,SBD,Single-ply,M,Open,1,
J. Reinstra,125,300,192.5,310,802.5,SBD,Single-ply,M,Open,2,
Don Haines,125,282.5,192.5,307.5,782.5,SBD,Single-ply,M,Open,3,
Russ Barlow #1,125,277.5,192.5,305,775,SBD,Single-ply,M,Open,4,
Ed Riley #1,125,272.5,160,260,692.5,SBD,Single-ply,M,Open,5,45-49
Bob DeBolt,125,290,192.5,,,SBD,Single-ply,M,Open,DQ,
Frank Venezia,125+,320,222.5,272.5,815,SBD,Single-ply,M,Open,1,
Frank Nichter,125+,300,195,295,790,SBD,Single-ply,M,Open,2,
Robert Edwards,125+,267.5,150,232.5,650,SBD,Single-ply,M,Open,3,45-49
Terry McFadden,125+,160,122.5,192.5,475,SBD,Single-ply,M,Open,4,
Bill Brown #2,125+,137.5,127.5,187.5,452.5,SBD,Single-ply,M,Open,5,
R. Lubow,125+,,,,,SBD,Single-ply,M,Open,DQ,
